<?xml version="1.0" encoding="UTF-8"?>
<DataFileEntity>
   <description></description>
   <name>Accounts</name>
   <tag></tag>
   <containsHeaders>true</containsHeaders>
   <csvSeperator></csvSeperator>
   <dataFileGUID>ace63e78-3e13-41c0-bed0-fe0cb40d5808</dataFileGUID>
   <dataSourceUrl></dataSourceUrl>
   <driver>InternalData</driver>
   <data>tomsmith T6bVo8B8lVC7U1u1L64B7tu%2BltX9y9HI</data>
   <data>hoanghann T6bVo8B8lVC7U1u1L64B7tu%2BltX9y9HI</data>
   <internalDataColumns>
      <columnIndex>0</columnIndex>
      <name>userName</name>
      <size>2</size>
   </internalDataColumns>
   <internalDataColumns>
      <columnIndex>1</columnIndex>
      <name>passWord</name>
      <size>2</size>
   </internalDataColumns>
   <isInternalPath>false</isInternalPath>
   <query></query>
   <secureUserAccount>false</secureUserAccount>
   <sheetName></sheetName>
   <usingGlobalDBSetting>false</usingGlobalDBSetting>
</DataFileEntity>
